([('main', '/home/rjf/Documents/mayes/scripts/build/main/main', 'EXECUTABLE'),
  ('libz.so.1', '/lib/x86_64-linux-gnu/libz.so.1', 'BINARY'),
  ('_multiprocessing',
   '/usr/lib/python2.7/lib-dynload/_multiprocessing.x86_64-linux-gnu.so',
   'EXTENSION'),
  ('readline',
   '/usr/lib/python2.7/lib-dynload/readline.x86_64-linux-gnu.so',
   'EXTENSION'),
  ('_hashlib',
   '/usr/lib/python2.7/lib-dynload/_hashlib.x86_64-linux-gnu.so',
   'EXTENSION'),
  ('bz2',
   '/usr/lib/python2.7/lib-dynload/bz2.x86_64-linux-gnu.so',
   'EXTENSION'),
  ('_ctypes',
   '/usr/lib/python2.7/lib-dynload/_ctypes.x86_64-linux-gnu.so',
   'EXTENSION'),
  ('mmap',
   '/usr/lib/python2.7/lib-dynload/mmap.x86_64-linux-gnu.so',
   'EXTENSION'),
  ('_ssl',
   '/usr/lib/python2.7/lib-dynload/_ssl.x86_64-linux-gnu.so',
   'EXTENSION'),
  ('termios',
   '/usr/lib/python2.7/lib-dynload/termios.x86_64-linux-gnu.so',
   'EXTENSION'),
  ('pyexpat',
   '/usr/lib/python2.7/lib-dynload/pyexpat.x86_64-linux-gnu.so',
   'EXTENSION'),
  ('resource',
   '/usr/lib/python2.7/lib-dynload/resource.x86_64-linux-gnu.so',
   'EXTENSION'),
  ('_multibytecodec',
   '/usr/lib/python2.7/lib-dynload/_multibytecodec.x86_64-linux-gnu.so',
   'EXTENSION'),
  ('_codecs_cn',
   '/usr/lib/python2.7/lib-dynload/_codecs_cn.x86_64-linux-gnu.so',
   'EXTENSION'),
  ('_codecs_jp',
   '/usr/lib/python2.7/lib-dynload/_codecs_jp.x86_64-linux-gnu.so',
   'EXTENSION'),
  ('_codecs_hk',
   '/usr/lib/python2.7/lib-dynload/_codecs_hk.x86_64-linux-gnu.so',
   'EXTENSION'),
  ('_codecs_tw',
   '/usr/lib/python2.7/lib-dynload/_codecs_tw.x86_64-linux-gnu.so',
   'EXTENSION'),
  ('_codecs_iso2022',
   '/usr/lib/python2.7/lib-dynload/_codecs_iso2022.x86_64-linux-gnu.so',
   'EXTENSION'),
  ('_codecs_kr',
   '/usr/lib/python2.7/lib-dynload/_codecs_kr.x86_64-linux-gnu.so',
   'EXTENSION'),
  ('PIL._webp',
   '/usr/lib/python2.7/dist-packages/PIL/_webp.x86_64-linux-gnu.so',
   'EXTENSION'),
  ('PIL._imaging',
   '/usr/lib/python2.7/dist-packages/PIL/_imaging.x86_64-linux-gnu.so',
   'EXTENSION'),
  ('_bsddb',
   '/usr/lib/python2.7/lib-dynload/_bsddb.x86_64-linux-gnu.so',
   'EXTENSION'),
  ('dbm',
   '/usr/lib/python2.7/lib-dynload/dbm.x86_64-linux-gnu.so',
   'EXTENSION'),
  ('_testcapi',
   '/usr/lib/python2.7/lib-dynload/_testcapi.x86_64-linux-gnu.so',
   'EXTENSION'),
  ('future_builtins',
   '/usr/lib/python2.7/lib-dynload/future_builtins.x86_64-linux-gnu.so',
   'EXTENSION'),
  ('parser',
   '/usr/lib/python2.7/lib-dynload/parser.x86_64-linux-gnu.so',
   'EXTENSION'),
  ('libtinfo.so.5', '/lib/x86_64-linux-gnu/libtinfo.so.5', 'BINARY'),
  ('libreadline.so.7', '/lib/x86_64-linux-gnu/libreadline.so.7', 'BINARY'),
  ('libcrypto.so.1.1',
   '/usr/lib/x86_64-linux-gnu/libcrypto.so.1.1',
   'BINARY'),
  ('libbz2.so.1.0', '/lib/x86_64-linux-gnu/libbz2.so.1.0', 'BINARY'),
  ('libffi.so.6', '/usr/lib/x86_64-linux-gnu/libffi.so.6', 'BINARY'),
  ('libssl.so.1.1', '/usr/lib/x86_64-linux-gnu/libssl.so.1.1', 'BINARY'),
  ('libexpat.so.1', '/lib/x86_64-linux-gnu/libexpat.so.1', 'BINARY'),
  ('libwebpdemux.so.2',
   '/usr/lib/x86_64-linux-gnu/libwebpdemux.so.2',
   'BINARY'),
  ('libwebpmux.so.3', '/usr/lib/x86_64-linux-gnu/libwebpmux.so.3', 'BINARY'),
  ('libwebp.so.6', '/usr/lib/x86_64-linux-gnu/libwebp.so.6', 'BINARY'),
  ('libtiff.so.5', '/usr/lib/x86_64-linux-gnu/libtiff.so.5', 'BINARY'),
  ('libjbig.so.0', '/usr/lib/x86_64-linux-gnu/libjbig.so.0', 'BINARY'),
  ('libjpeg.so.8', '/usr/lib/x86_64-linux-gnu/libjpeg.so.8', 'BINARY'),
  ('liblzma.so.5', '/lib/x86_64-linux-gnu/liblzma.so.5', 'BINARY'),
  ('libdb-5.3.so', '/usr/lib/x86_64-linux-gnu/libdb-5.3.so', 'BINARY'),
  ('libpython2.7.so.1.0',
   '/usr/lib/x86_64-linux-gnu/libpython2.7.so.1.0',
   'BINARY'),
  ('lib/python2.7/config-x86_64-linux-gnu/Makefile',
   '/usr/lib/python2.7/config-x86_64-linux-gnu/Makefile',
   'DATA'),
  ('lib2to3/PatternGrammar.txt',
   '/usr/lib/python2.7/lib2to3/PatternGrammar.txt',
   'DATA'),
  ('lib2to3/Grammar.txt', '/usr/lib/python2.7/lib2to3/Grammar.txt', 'DATA'),
  ('include/python2.7/pyconfig.h',
   '/usr/include/python2.7/pyconfig.h',
   'DATA')],)
