('/home/rjf/Documents/mayes/scripts/build/main/main',
 True,
 False,
 True,
 None,
 None,
 False,
 False,
 None,
 True,
 'main.pkg',
 [('PYZ-00.pyz',
   '/home/rjf/Documents/mayes/scripts/build/main/PYZ-00.pyz',
   'PYZ'),
  ('struct', '/usr/lib/python2.7/struct.pyc', 'PYMODULE'),
  ('pyimod01_os_path',
   '/home/rjf/.local/lib/python2.7/site-packages/PyInstaller/loader/pyimod01_os_path.pyc',
   'PYMODULE'),
  ('pyimod02_archive',
   '/home/rjf/.local/lib/python2.7/site-packages/PyInstaller/loader/pyimod02_archive.pyc',
   'PYMODULE'),
  ('pyimod03_importers',
   '/home/rjf/.local/lib/python2.7/site-packages/PyInstaller/loader/pyimod03_importers.pyc',
   'PYMODULE'),
  ('pyiboot01_bootstrap',
   '/home/rjf/.local/lib/python2.7/site-packages/PyInstaller/loader/pyiboot01_bootstrap.py',
   'PYSOURCE'),
  ('pyi_rth_multiprocessing',
   '/home/rjf/.local/lib/python2.7/site-packages/PyInstaller/loader/rthooks/pyi_rth_multiprocessing.py',
   'PYSOURCE'),
  ('main', '/home/rjf/Documents/mayes/scripts/main.py', 'PYSOURCE')],
 [],
 False,
 False,
 1547779496,
 [('run',
   '/home/rjf/.local/lib/python2.7/site-packages/PyInstaller/bootloader/Linux-64bit/run',
   'EXECUTABLE')])
